{
  "project_info": {
    "project_number": "461859364310",
    "firebase_url": "https://train-c.firebaseio.com",
    "project_id": "train-c",
    "storage_bucket": "train-c.appspot.com"
  },
  "client": [
    {
      "client_info": {
        "mobilesdk_app_id": "1:461859364310:android:494fd5291f1473d3",
        "android_client_info": {
          "package_name": "com.mainvoitenko.trainchain"
        }
      },
      "oauth_client": [
        {
          "client_id": "461859364310-2q11qe2papmij58inj2f374j52vlj25c.apps.googleusercontent.com",
          "client_type": 1,
          "android_info": {
            "package_name": "com.mainvoitenko.trainchain",
            "certificate_hash": "4025B90444BD97F94A8FA237F7BEB9E028C73430"
          }
        },
        {
          "client_id": "461859364310-em4mjhe6c8j0stkceo8reclp0q818lhg.apps.googleusercontent.com",
          "client_type": 3
        }
      ],
      "api_key": [
        {
          "current_key": "AIzaSyBn5xeZaJilfn47SSpNwLWsafW-1Im3eUY"
        }
      ],
      "services": {
        "analytics_service": {
          "status": 1
        },
        "appinvite_service": {
          "status": 2,
          "other_platform_oauth_client": [
            {
              "client_id": "461859364310-em4mjhe6c8j0stkceo8reclp0q818lhg.apps.googleusercontent.com",
              "client_type": 3
            }
          ]
        },
        "ads_service": {
          "status": 2
        }
      }
    }
  ],
  "configuration_version": "1"
}